Hodge Podge
…
subject <- "election"
start_date <- today() - 30
api_key <- "214a818775454f13ab5ccf959e471a0f"
URL_base <- "https://newsapi.org/v2/everything?q="
URL_id <- paste0(URL_base, subject, "&from=", start_date, "&sortBy=publishedAt&apiKey=", api_key)

Use GET() from the httr package to return information about a topic of interest that has been in the news lately and store the result as an R object. Parse what is returned and locate data frame that has the actual article information.

news_raw <- GET(URL_id)
news_stories <- fromJSON(rawToChar(news_raw$content), flatten = T, simplifyDataFrame = T)
news_stories <- as_tibble(news_stories)
news_stories

# A tibble: 100 × 3
   status totalResults articles$author     $title $description $url  $urlToImage
   <chr>         <int> <chr>               <chr>  <chr>        <chr> <chr>      
 1 ok            38555 Knowledge@Wharton   "How … "Escalating… http… https://ww…
 2 ok            38555 ANI                 "This… "During the… http… https://im…
 3 ok            38555 Bᴬᴿᴼᴺ ᵛᵒᵑ           "US p… "Democratic… http… https://cd…
 4 ok            38555 Reuters             "Cuba… "Cubans mis… http… https://i-…
 5 ok            38555 Rebecca Rommen,Nat… "Spai… "The Spanis… http… https://i.…
 6 ok            38555 Associated Press    "How … "Voting bef… http… https://ww…
 7 ok            38555 Associated Press    "Wher… "Here’s a l… http… https://ww…
 8 ok            38555 Reuters             "Anal… "Analysis-C… http… https://i-…
 9 ok            38555 Reuters             "Caug… "After week… http… https://c.…
10 ok            38555 reason.com          "How … "In April 1… http… https://bi…
# ℹ 90 more rows
# ℹ 4 more variables: articles$publishedAt <chr>, $content <chr>,
#   $source.id <chr>, $source.name <chr>
…
Use your function twice to grab some data. Save each as an object.

articles_football <- news_query("football", "2024-09-17", "214a818775454f13ab5ccf959e471a0f")
articles_baseball <- news_query(subject = "baseball",
                                api_key = "214a818775454f13ab5ccf959e471a0f")

With one of the above objects, summarize the name of the source for each article. That is, find a one-way contingency table for this information.

articles_football |>
  group_by(source.name) |>
  summarise(count = n()) |>
  arrange(desc(count))

# A tibble: 56 × 2
   source.name             count
   <chr>                   <int>
 1 Yahoo Entertainment        11
 2 USA Today                   7
 3 [Removed]                   6
 4 Fci Academy                 5
 5 Lavenir.net                 4
 6 Feber.se                    3
 7 Knoxville News Sentinel     3
 8 BBC News                    2
 9 BFMTV                       2
10 Eurosport.fr                2
# ℹ 46 more rows
…
